%YAML 1.1
%TAG !u! tag:unity3d.com,2011:
--- !u!114 &11400000
MonoBehaviour:
  m_ObjectHideFlags: 0
  m_CorrespondingSourceObject: {fileID: 0}
  m_PrefabInstance: {fileID: 0}
  m_PrefabAsset: {fileID: 0}
  m_GameObject: {fileID: 0}
  m_Enabled: 1
  m_EditorHideFlags: 0
  m_Script: {fileID: 11500000, guid: 0b8788c661dc4019abb539753249473b, type: 3}
  m_Name: DishNamingPreferences
  m_EditorClassIdentifier: 
  conditions:
  - subConditions:
    - ingredient: 1
      op: 0
      count: 5
      bindWithPrevious: 0
    resolution: "\u041C\u044F\u0441\u043E \u0432 \u0441\u043E\u0431\u0441\u0442\u0432\u0435\u043D\u043D\u043E\u043C
      \u0441\u043E\u043A\u0443"
  - subConditions:
    - ingredient: 1
      op: 0
      count: 4
      bindWithPrevious: 0
    resolution: "\u041C\u044F\u0441\u043E \u0441 \u0433\u0430\u0440\u043D\u0438\u0440\u043E\u043C"
  - subConditions:
    - ingredient: 1
      op: 2
      count: 2
      bindWithPrevious: 0
    - ingredient: 1
      op: 4
      count: 3
      bindWithPrevious: 0
    resolution: "\u0420\u0430\u0433\u0443"
  - subConditions:
    - ingredient: 4
      op: 2
      count: 4
      bindWithPrevious: 0
    resolution: "\u041B\u0443\u043A\u043E\u0432\u044B\u0439 \u0441\u0443\u043F"
  - subConditions:
    - ingredient: 2
      op: 2
      count: 4
      bindWithPrevious: 0
    resolution: "\u041A\u0430\u0440\u0442\u043E\u0444\u0435\u043B\u044C\u043D\u043E\u0435
      \u043F\u044E\u0440\u0435"
  - subConditions:
    - ingredient: 1
      op: 0
      count: 0
      bindWithPrevious: 0
    resolution: "\u041E\u0432\u043E\u0449\u043D\u043E\u0435 \u0440\u0430\u0433\u0443"
  otherwise: "\u0421\u0443\u043F"
